{
  "plugins": {},
  "filters": {},
  "rules": {
    "preset-japanese": true,
    "preset-ja-spacing": false,
    "ja-technical-writing/no-exclamation-question-mark": false,
    "preset-ja-technical-writing": true,
    "alex": {
      "allow": []
    },
    "apostrophe": true,
    "diacritics": true,
    "terminology": {
      "defaultTerms": true
    },
    "stop-words": {
      "defaultWords": true
    },
    "abbr-within-parentheses": true
  }
}
